﻿{   //Config Fraud Check - Client: PUIG/ALTEN
	// essential data

  	"webSAP": "webSAP",
  	"filtersToDelete": "Usuario,Sitio,Tienda,Aplicación de ventas,Estado Sap,Status alignment rule not passed",
	"filtersOrderFraudToAdd" : "Suspendido,Listo,Cancelado,Completado",
	"filtersOrderFraudToAddFraud": "Esperando validación manual",
	"assetLanguage": "FraudCheck_Lenguajes",
	"fileCSVcheckFraud" : "FraudCheck",
	"assetDate" : "FraudCheck_UltimaEjecucion",

  
  	// Times
    	"Delay": "00:20:00",
    	"NumberOfRetries": 3,
    	"Time_Retry": "00:10:00",
    	"Time_XXXS": 1000,
    	"Time_XXS": 2000,
    	"Time_XS": 5000,
    	"Time_S": 10000,
    	"Time_M": 15000,
    	"Time_L": 20000,
    	"Time_XL": 30000,
    	"Time_XXL": 60000,
    	"Time_XXXL": 120000,
    	"Time_XXXXL": 300000,
    	"Time_XXXXXL": 600000,

	
	
    	// Process Trace

  		"Log_1" : "Fichero config.json cargado correctamente",
    		"Log_2" : "Credenciales obtenidas correctamente",
		"Log_3" : "SAP Hybris abierto correctamente",
    		"Log_4" : "Inicio sesión en SAP Hybris correctamente",
		"Log_5" : "Abriendo SAP Hybris...",
		"Log_6" : "Introduciendo credenciales...",

		"Log_7" : "Accediendo a filtrado de pedidos",
		"Log_8" : "Aplicando filtrado",
		"Log_9" : "Buscando pedidos",
		"Log_10": "Hay pedidos en la búsqueda",
		"Log_11": "No hay pedidos en la búsqueda",
		"Log_12": "Descargando fichero csv...",
		"Log_13": "Tratando umbral de seguridad",
		"Log_14": "Guardando fichero csv...",
  	
	// Error General Message

		"Err_0": "Fallo con la URL", 
  		"Err_1": "Fichero config.json no cargado",
  		"Err_2": "Credenciales no obtenidas",
		"Err_3": "Fallo en apertura SAP Hybris",
  		"Err_4": "Fallo Login",
  		"Err_5": "Login incorrecto",
  		"Err_6": "Fallo inesperado en Login",
 		"Err_7": "Campos login vacíos",
		"Err_8": "Credenciales incorrectas",

		



	// SMTP config
		"port" : "25",
		"server": "correo.puig.es",
		"sender": "RPA_BOTDES@puig.com",
		
	// Client mails 

    		"MailsList_Main" : "MailsList_Main",
		"MailsList_cc": "MailsList_cc",
		"MailsList_test" : "dgomez@rpatechnologies.es",

  	//Send mail structure[Fraud]
		
		"SubjectFraudCheck": "Fraud Check",
		"BodyResultFraud": "Hola <br/><br/>Soy el RobotCS y he finalizado el proceso Fraud Check Hybris. A continuación os adjunto el csv con los resultado. <br/><br/>Buen día! <br/>Un saludo",
		"BodyNotResultFraud": "Hola <br/><br/>Soy el RobotCS y he finalizado el proceso Fraud Check Hybris. Os informo que no ha habido resultados para la búsqueda filtrada. <br/><br/>Buen día! <br/>Un saludo",
		"BodyFailedFraud": "Hola <br/><br/>Soy el RobotCS y he finalizado el proceso Fraud Check Hybris. Os indico que la ejecución ha siddo fallida. <br/><br/>Buen día! <br/>Un saludo",

	//Send mail structure[FRAUD]
		
		"SubjectFraudCheck": "Fraud Check",
		"BodyFraudHeader": "Good morning/afternoon

Find below the new fraud check orders to be reviwed between",
		
		"BodyFraudFooter" : "


Kind regards,
CS-ecommerce Team",
		"BodyNotResultFraudHeader": "Good morning/afternoon

Please be informed that there were no results for the filtered search in this run between:",
		"BodyNotResultFraudFooter": "Kind regards,
CS-ecommerce Team", 

  	




}